<svg width="104" height="104" viewBox="0 0 104 104" fill="none" xmlns="http://www.w3.org/2000/svg">
<path d="M31.5162 0H28.3613V3.1549H31.5162V0Z" fill="white"/>
<path d="M34.6603 0H31.5054V3.1549H34.6603V0Z" fill="white"/>
<path d="M40.9611 0H37.8062V3.1549H40.9611V0Z" fill="white"/>
<path d="M44.1158 0H40.9609V3.1549H44.1158V0Z" fill="white"/>
<path d="M47.2618 0H44.1069V3.1549H47.2618V0Z" fill="white"/>
<path d="M50.4166 0H47.2617V3.1549H50.4166V0Z" fill="white"/>
<path d="M59.8644 0H56.7095V3.1549H59.8644V0Z" fill="white"/>
<path d="M63.0196 0H59.8647V3.1549H63.0196V0Z" fill="white"/>
<path d="M66.1632 0H63.0083V3.1549H66.1632V0Z" fill="white"/>
<path d="M69.3204 0H66.1655V3.1549H69.3204V0Z" fill="white"/>
<path d="M75.6232 0H72.4683V3.1549H75.6232V0Z" fill="white"/>
<path d="M78.7687 0H75.6138V3.1549H78.7687V0Z" fill="white"/>
<path d="M28.3619 3.15527H25.207V6.31017H28.3619V3.15527Z" fill="white"/>
<path d="M31.5162 3.15527H28.3613V6.31017H31.5162V3.15527Z" fill="white"/>
<path d="M34.6603 3.15527H31.5054V6.31017H34.6603V3.15527Z" fill="white"/>
<path d="M37.817 3.15527H34.6621V6.31017H37.817V3.15527Z" fill="white"/>
<path d="M40.9611 3.15527H37.8062V6.31017H40.9611V3.15527Z" fill="white"/>
<path d="M56.7208 3.15479H53.5659V6.30969H56.7208V3.15479Z" fill="white"/>
<path d="M66.1632 3.15527H63.0083V6.31017H66.1632V3.15527Z" fill="white"/>
<path d="M69.3204 3.15527H66.1655V6.31017H69.3204V3.15527Z" fill="white"/>
<path d="M72.4698 3.15527H69.3149V6.31017H72.4698V3.15527Z" fill="white"/>
<path d="M78.7687 3.15527H75.6138V6.31017H78.7687V3.15527Z" fill="white"/>
<path d="M40.9611 6.30078H37.8062V9.45568H40.9611V6.30078Z" fill="white"/>
<path d="M44.1158 6.30127H40.9609V9.45617H44.1158V6.30127Z" fill="white"/>
<path d="M47.2618 6.30127H44.1069V9.45617H47.2618V6.30127Z" fill="white"/>
<path d="M50.4166 6.30127H47.2617V9.45617H50.4166V6.30127Z" fill="white"/>
<path d="M53.5655 6.30127H50.4106V9.45617H53.5655V6.30127Z" fill="white"/>
<path d="M59.8644 6.30127H56.7095V9.45617H59.8644V6.30127Z" fill="white"/>
<path d="M66.1632 6.30127H63.0083V9.45617H66.1632V6.30127Z" fill="white"/>
<path d="M69.3204 6.30127H66.1655V9.45617H69.3204V6.30127Z" fill="white"/>
<path d="M72.4698 6.30127H69.3149V9.45617H72.4698V6.30127Z" fill="white"/>
<path d="M31.5162 9.45605H28.3613V12.611H31.5162V9.45605Z" fill="white"/>
<path d="M37.817 9.45605H34.6621V12.611H37.817V9.45605Z" fill="white"/>
<path d="M44.1158 9.45605H40.9609V12.611H44.1158V9.45605Z" fill="white"/>
<path d="M47.2618 9.45605H44.1069V12.611H47.2618V9.45605Z" fill="white"/>
<path d="M63.0196 9.45605H59.8647V12.611H63.0196V9.45605Z" fill="white"/>
<path d="M78.7687 9.45605H75.6138V12.611H78.7687V9.45605Z" fill="white"/>
<path d="M31.5162 12.6025H28.3613V15.7574H31.5162V12.6025Z" fill="white"/>
<path d="M34.6603 12.6021H31.5054V15.757H34.6603V12.6021Z" fill="white"/>
<path d="M47.2618 12.6021H44.1069V15.757H47.2618V12.6021Z" fill="white"/>
<path d="M53.5655 12.6025H50.4106V15.7574H53.5655V12.6025Z" fill="white"/>
<path d="M56.7208 12.6025H53.5659V15.7574H56.7208V12.6025Z" fill="white"/>
<path d="M66.1632 12.6025H63.0083V15.7574H66.1632V12.6025Z" fill="white"/>
<path d="M78.7687 12.6025H75.6138V15.7574H78.7687V12.6025Z" fill="white"/>
<path d="M28.3619 15.7568H25.207V18.9117H28.3619V15.7568Z" fill="white"/>
<path d="M34.6603 15.7568H31.5054V18.9117H34.6603V15.7568Z" fill="white"/>
<path d="M37.817 15.7573H34.6621V18.9122H37.817V15.7573Z" fill="white"/>
<path d="M44.1158 15.7573H40.9609V18.9122H44.1158V15.7573Z" fill="white"/>
<path d="M47.2618 15.7568H44.1069V18.9117H47.2618V15.7568Z" fill="white"/>
<path d="M59.8644 15.7573H56.7095V18.9122H59.8644V15.7573Z" fill="white"/>
<path d="M66.1632 15.7573H63.0083V18.9122H66.1632V15.7573Z" fill="white"/>
<path d="M72.4698 15.7573H69.3149V18.9122H72.4698V15.7573Z" fill="white"/>
<path d="M28.3619 18.9033H25.207V22.0582H28.3619V18.9033Z" fill="white"/>
<path d="M34.6603 18.9033H31.5054V22.0582H34.6603V18.9033Z" fill="white"/>
<path d="M40.9611 18.9033H37.8062V22.0582H40.9611V18.9033Z" fill="white"/>
<path d="M47.2618 18.9028H44.1069V22.0577H47.2618V18.9028Z" fill="white"/>
<path d="M53.5655 18.9033H50.4106V22.0582H53.5655V18.9033Z" fill="white"/>
<path d="M59.8644 18.9038H56.7095V22.0587H59.8644V18.9038Z" fill="white"/>
<path d="M66.1632 18.9038H63.0083V22.0587H66.1632V18.9038Z" fill="white"/>
<path d="M72.4698 18.9038H69.3149V22.0587H72.4698V18.9038Z" fill="white"/>
<path d="M78.7687 18.9038H75.6138V22.0587H78.7687V18.9038Z" fill="white"/>
<path d="M28.3619 22.0581H25.207V25.213H28.3619V22.0581Z" fill="white"/>
<path d="M31.5162 22.0586H28.3613V25.2135H31.5162V22.0586Z" fill="white"/>
<path d="M37.817 22.0586H34.6621V25.2135H37.817V22.0586Z" fill="white"/>
<path d="M40.9611 22.0581H37.8062V25.213H40.9611V22.0581Z" fill="white"/>
<path d="M44.1158 22.0586H40.9609V25.2135H44.1158V22.0586Z" fill="white"/>
<path d="M47.2618 22.0581H44.1069V25.213H47.2618V22.0581Z" fill="white"/>
<path d="M50.4166 22.0586H47.2617V25.2135H50.4166V22.0586Z" fill="white"/>
<path d="M53.5655 22.0586H50.4106V25.2135H53.5655V22.0586Z" fill="white"/>
<path d="M56.7208 22.0586H53.5659V25.2135H56.7208V22.0586Z" fill="white"/>
<path d="M59.8644 22.0586H56.7095V25.2135H59.8644V22.0586Z" fill="white"/>
<path d="M63.0196 22.0586H59.8647V25.2135H63.0196V22.0586Z" fill="white"/>
<path d="M66.1632 22.0586H63.0083V25.2135H66.1632V22.0586Z" fill="white"/>
<path d="M69.3204 22.0586H66.1655V25.2135H69.3204V22.0586Z" fill="white"/>
<path d="M75.6232 22.0586H72.4683V25.2135H75.6232V22.0586Z" fill="white"/>
<path d="M15.7497 25.2041H12.6035V28.359H15.7497V25.2041Z" fill="white"/>
<path d="M18.9127 25.2046H15.7578V28.3595H18.9127V25.2046Z" fill="white"/>
<path d="M22.0553 25.2041H18.9004V28.359H22.0553V25.2041Z" fill="white"/>
<path d="M25.2135 25.2046H22.0586V28.3595H25.2135V25.2046Z" fill="white"/>
<path d="M34.6603 25.2041H31.5054V28.359H34.6603V25.2041Z" fill="white"/>
<path d="M44.1158 25.2046H40.9609V28.3595H44.1158V25.2046Z" fill="white"/>
<path d="M53.5655 25.2046H50.4106V28.3595H53.5655V25.2046Z" fill="white"/>
<path d="M56.7208 25.2046H53.5659V28.3595H56.7208V25.2046Z" fill="white"/>
<path d="M59.8644 25.2046H56.7095V28.3595H59.8644V25.2046Z" fill="white"/>
<path d="M63.0196 25.2046H59.8647V28.3595H63.0196V25.2046Z" fill="white"/>
<path d="M66.1632 25.2046H63.0083V28.3595H66.1632V25.2046Z" fill="white"/>
<path d="M69.3204 25.2046H66.1655V28.3595H69.3204V25.2046Z" fill="white"/>
<path d="M72.4698 25.2046H69.3149V28.3595H72.4698V25.2046Z" fill="white"/>
<path d="M78.7687 25.2046H75.6138V28.3595H78.7687V25.2046Z" fill="white"/>
<path d="M85.0714 25.2046H81.9165V28.3595H85.0714V25.2046Z" fill="white"/>
<path d="M88.2291 25.2046H85.0742V28.3595H88.2291V25.2046Z" fill="white"/>
<path d="M100.829 25.2046H97.6738V28.3595H100.829V25.2046Z" fill="white"/>
<path d="M3.1549 28.3594H0V31.5143H3.1549V28.3594Z" fill="white"/>
<path d="M6.3092 28.3599H3.1543V31.5148H6.3092V28.3599Z" fill="white"/>
<path d="M12.6139 28.3599H9.45898V31.5148H12.6139V28.3599Z" fill="white"/>
<path d="M18.9127 28.3599H15.7578V31.5148H18.9127V28.3599Z" fill="white"/>
<path d="M25.2135 28.3599H22.0586V31.5148H25.2135V28.3599Z" fill="white"/>
<path d="M28.3619 28.3589H25.207V31.5138H28.3619V28.3589Z" fill="white"/>
<path d="M31.5162 28.3599H28.3613V31.5148H31.5162V28.3599Z" fill="white"/>
<path d="M34.6603 28.3589H31.5054V31.5138H34.6603V28.3589Z" fill="white"/>
<path d="M37.817 28.3599H34.6621V31.5148H37.817V28.3599Z" fill="white"/>
<path d="M53.5655 28.3599H50.4106V31.5148H53.5655V28.3599Z" fill="white"/>
<path d="M59.8644 28.3594H56.7095V31.5143H59.8644V28.3594Z" fill="white"/>
<path d="M63.0196 28.3594H59.8647V31.5143H63.0196V28.3594Z" fill="white"/>
<path d="M69.3204 28.3594H66.1655V31.5143H69.3204V28.3594Z" fill="white"/>
<path d="M72.4698 28.3594H69.3149V31.5143H72.4698V28.3594Z" fill="white"/>
<path d="M75.6232 28.3594H72.4683V31.5143H75.6232V28.3594Z" fill="white"/>
<path d="M88.2291 28.3594H85.0742V31.5143H88.2291V28.3594Z" fill="white"/>
<path d="M94.5236 28.3599H91.3687V31.5148H94.5236V28.3599Z" fill="white"/>
<path d="M100.829 28.3594H97.6738V31.5143H100.829V28.3594Z" fill="white"/>
<path d="M3.1549 31.5054H0V34.6603H3.1549V31.5054Z" fill="white"/>
<path d="M22.0553 31.5054H18.9004V34.6603H22.0553V31.5054Z" fill="white"/>
<path d="M25.2135 31.5059H22.0586V34.6608H25.2135V31.5059Z" fill="white"/>
<path d="M34.6603 31.5054H31.5054V34.6603H34.6603V31.5054Z" fill="white"/>
<path d="M37.817 31.5059H34.6621V34.6608H37.817V31.5059Z" fill="white"/>
<path d="M47.2618 31.5054H44.1069V34.6603H47.2618V31.5054Z" fill="white"/>
<path d="M50.4166 31.5059H47.2617V34.6608H50.4166V31.5059Z" fill="white"/>
<path d="M53.5655 31.5059H50.4106V34.6608H53.5655V31.5059Z" fill="white"/>
<path d="M75.6232 31.5059H72.4683V34.6608H75.6232V31.5059Z" fill="white"/>
<path d="M78.7687 31.5059H75.6138V34.6608H78.7687V31.5059Z" fill="white"/>
<path d="M88.2291 31.5059H85.0742V34.6608H88.2291V31.5059Z" fill="white"/>
<path d="M91.3702 31.5059H88.2153V34.6608H91.3702V31.5059Z" fill="white"/>
<path d="M100.829 31.5059H97.6738V34.6608H100.829V31.5059Z" fill="white"/>
<path d="M3.1549 34.6602H0V37.8151H3.1549V34.6602Z" fill="white"/>
<path d="M6.3092 34.6606H3.1543V37.8155H6.3092V34.6606Z" fill="white"/>
<path d="M25.2135 34.6606H22.0586V37.8155H25.2135V34.6606Z" fill="white"/>
<path d="M37.817 34.6606H34.6621V37.8155H37.817V34.6606Z" fill="white"/>
<path d="M40.9611 34.6602H37.8062V37.8151H40.9611V34.6602Z" fill="white"/>
<path d="M63.0196 34.6606H59.8647V37.8155H63.0196V34.6606Z" fill="white"/>
<path d="M66.1632 34.6606H63.0083V37.8155H66.1632V34.6606Z" fill="white"/>
<path d="M72.4698 34.6606H69.3149V37.8155H72.4698V34.6606Z" fill="white"/>
<path d="M78.7687 34.6606H75.6138V37.8155H78.7687V34.6606Z" fill="white"/>
<path d="M91.3702 34.6606H88.2153V37.8155H91.3702V34.6606Z" fill="white"/>
<path d="M94.5236 34.6606H91.3687V37.8155H94.5236V34.6606Z" fill="white"/>
<path d="M100.829 34.6606H97.6738V37.8155H100.829V34.6606Z" fill="white"/>
<path d="M3.1549 37.8062H0V40.9611H3.1549V37.8062Z" fill="white"/>
<path d="M6.3092 37.8071H3.1543V40.962H6.3092V37.8071Z" fill="white"/>
<path d="M9.45764 37.8062H6.30273V40.9611H9.45764V37.8062Z" fill="white"/>
<path d="M22.0553 37.8062H18.9004V40.9611H22.0553V37.8062Z" fill="white"/>
<path d="M25.2135 37.8071H22.0586V40.962H25.2135V37.8071Z" fill="white"/>
<path d="M31.5162 37.8071H28.3613V40.962H31.5162V37.8071Z" fill="white"/>
<path d="M40.9611 37.8062H37.8062V40.9611H40.9611V37.8062Z" fill="white"/>
<path d="M47.2618 37.8062H44.1069V40.9611H47.2618V37.8062Z" fill="white"/>
<path d="M56.7208 37.8071H53.5659V40.962H56.7208V37.8071Z" fill="white"/>
<path d="M66.1632 37.8071H63.0083V40.962H66.1632V37.8071Z" fill="white"/>
<path d="M72.4698 37.8071H69.3149V40.962H72.4698V37.8071Z" fill="white"/>
<path d="M78.7687 37.8071H75.6138V40.962H78.7687V37.8071Z" fill="white"/>
<path d="M85.0714 37.8071H81.9165V40.962H85.0714V37.8071Z" fill="white"/>
<path d="M9.45764 40.9609H6.30273V44.1158H9.45764V40.9609Z" fill="white"/>
<path d="M12.6139 40.9619H9.45898V44.1168H12.6139V40.9619Z" fill="white"/>
<path d="M25.2135 40.9619H22.0586V44.1168H25.2135V40.9619Z" fill="white"/>
<path d="M28.3619 40.9614H25.207V44.1163H28.3619V40.9614Z" fill="white"/>
<path d="M31.5162 40.9619H28.3613V44.1168H31.5162V40.9619Z" fill="white"/>
<path d="M34.6603 40.9614H31.5054V44.1163H34.6603V40.9614Z" fill="white"/>
<path d="M47.2618 40.9609H44.1069V44.1158H47.2618V40.9609Z" fill="white"/>
<path d="M53.5655 40.9619H50.4106V44.1168H53.5655V40.9619Z" fill="white"/>
<path d="M59.8644 40.9619H56.7095V44.1168H59.8644V40.9619Z" fill="white"/>
<path d="M66.1632 40.9619H63.0083V44.1168H66.1632V40.9619Z" fill="white"/>
<path d="M69.3204 40.9619H66.1655V44.1168H69.3204V40.9619Z" fill="white"/>
<path d="M75.6232 40.9619H72.4683V44.1168H75.6232V40.9619Z" fill="white"/>
<path d="M78.7687 40.9619H75.6138V44.1168H78.7687V40.9619Z" fill="white"/>
<path d="M88.2291 40.9619H85.0742V44.1168H88.2291V40.9619Z" fill="white"/>
<path d="M91.3702 40.9619H88.2153V44.1168H91.3702V40.9619Z" fill="white"/>
<path d="M97.6735 40.9619H94.5186V44.1168H97.6735V40.9619Z" fill="white"/>
<path d="M100.829 40.9619H97.6738V44.1168H100.829V40.9619Z" fill="white"/>
<path d="M18.9127 44.1084H15.7578V47.2633H18.9127V44.1084Z" fill="white"/>
<path d="M22.0553 44.1074H18.9004V47.2623H22.0553V44.1074Z" fill="white"/>
<path d="M31.5162 44.1084H28.3613V47.2633H31.5162V44.1084Z" fill="white"/>
<path d="M40.9611 44.1074H37.8062V47.2623H40.9611V44.1074Z" fill="white"/>
<path d="M53.5655 44.1084H50.4106V47.2633H53.5655V44.1084Z" fill="white"/>
<path d="M56.7208 44.1084H53.5659V47.2633H56.7208V44.1084Z" fill="white"/>
<path d="M59.8644 44.1084H56.7095V47.2633H59.8644V44.1084Z" fill="white"/>
<path d="M75.6232 44.1084H72.4683V47.2633H75.6232V44.1084Z" fill="white"/>
<path d="M78.7687 44.1084H75.6138V47.2633H78.7687V44.1084Z" fill="white"/>
<path d="M81.9239 44.1084H78.769V47.2633H81.9239V44.1084Z" fill="white"/>
<path d="M85.0714 44.1084H81.9165V47.2633H85.0714V44.1084Z" fill="white"/>
<path d="M88.2291 44.1084H85.0742V47.2633H88.2291V44.1084Z" fill="white"/>
<path d="M94.5236 44.1084H91.3687V47.2633H94.5236V44.1084Z" fill="white"/>
<path d="M100.829 44.1084H97.6738V47.2633H100.829V44.1084Z" fill="white"/>
<path d="M6.3092 47.2637H3.1543V50.4186H6.3092V47.2637Z" fill="white"/>
<path d="M9.45764 47.2627H6.30273V50.4176H9.45764V47.2627Z" fill="white"/>
<path d="M12.6139 47.2637H9.45898V50.4186H12.6139V47.2637Z" fill="white"/>
<path d="M25.2135 47.2637H22.0586V50.4186H25.2135V47.2637Z" fill="white"/>
<path d="M50.4166 47.2637H47.2617V50.4186H50.4166V47.2637Z" fill="white"/>
<path d="M56.7208 47.2637H53.5659V50.4186H56.7208V47.2637Z" fill="white"/>
<path d="M59.8644 47.2637H56.7095V50.4186H59.8644V47.2637Z" fill="white"/>
<path d="M63.0196 47.2637H59.8647V50.4186H63.0196V47.2637Z" fill="white"/>
<path d="M69.3204 47.2637H66.1655V50.4186H69.3204V47.2637Z" fill="white"/>
<path d="M78.7687 47.2637H75.6138V50.4186H78.7687V47.2637Z" fill="white"/>
<path d="M85.0714 47.2637H81.9165V50.4186H85.0714V47.2637Z" fill="white"/>
<path d="M3.1549 50.4092H0V53.5641H3.1549V50.4092Z" fill="white"/>
<path d="M12.6129 50.4092H9.45801V53.5641H12.6129V50.4092Z" fill="white"/>
<path d="M15.7497 50.4097H12.6035V53.5646H15.7497V50.4097Z" fill="white"/>
<path d="M22.0553 50.4092H18.9004V53.5641H22.0553V50.4092Z" fill="white"/>
<path d="M37.816 50.4092H34.6611V53.5641H37.816V50.4092Z" fill="white"/>
<path d="M44.1149 50.4092H40.96V53.5641H44.1149V50.4092Z" fill="white"/>
<path d="M56.7208 50.4092H53.5659V53.5641H56.7208V50.4092Z" fill="white"/>
<path d="M66.1632 50.4092H63.0083V53.5641H66.1632V50.4092Z" fill="white"/>
<path d="M69.3204 50.4092H66.1655V53.5641H69.3204V50.4092Z" fill="white"/>
<path d="M75.6232 50.4092H72.4683V53.5641H75.6232V50.4092Z" fill="white"/>
<path d="M81.9239 50.4092H78.769V53.5641H81.9239V50.4092Z" fill="white"/>
<path d="M85.0714 50.4092H81.9165V53.5641H85.0714V50.4092Z" fill="white"/>
<path d="M91.3702 50.4092H88.2153V53.5641H91.3702V50.4092Z" fill="white"/>
<path d="M94.5236 50.4092H91.3687V53.5641H94.5236V50.4092Z" fill="white"/>
<path d="M3.1549 53.564H0V56.7189H3.1549V53.564Z" fill="white"/>
<path d="M9.45764 53.564H6.30273V56.7189H9.45764V53.564Z" fill="white"/>
<path d="M12.6129 53.564H9.45801V56.7189H12.6129V53.564Z" fill="white"/>
<path d="M18.9117 53.564H15.7568V56.7189H18.9117V53.564Z" fill="white"/>
<path d="M31.5153 53.564H28.3604V56.7189H31.5153V53.564Z" fill="white"/>
<path d="M37.816 53.564H34.6611V56.7189H37.816V53.564Z" fill="white"/>
<path d="M40.9615 53.564H37.8066V56.7189H40.9615V53.564Z" fill="white"/>
<path d="M47.2623 53.564H44.1074V56.7189H47.2623V53.564Z" fill="white"/>
<path d="M50.4161 53.5645H47.2612V56.7194H50.4161V53.5645Z" fill="white"/>
<path d="M75.6232 53.564H72.4683V56.7189H75.6232V53.564Z" fill="white"/>
<path d="M78.7687 53.564H75.6138V56.7189H78.7687V53.564Z" fill="white"/>
<path d="M81.9239 53.564H78.769V56.7189H81.9239V53.564Z" fill="white"/>
<path d="M88.2291 53.564H85.0742V56.7189H88.2291V53.564Z" fill="white"/>
<path d="M3.1549 56.7109H0V59.8658H3.1549V56.7109Z" fill="white"/>
<path d="M15.7497 56.7109H12.6035V59.8658H15.7497V56.7109Z" fill="white"/>
<path d="M22.0553 56.7104H18.9004V59.8654H22.0553V56.7104Z" fill="white"/>
<path d="M34.6608 56.7104H31.5059V59.8654H34.6608V56.7104Z" fill="white"/>
<path d="M37.816 56.7104H34.6611V59.8654H37.816V56.7104Z" fill="white"/>
<path d="M40.9615 56.7104H37.8066V59.8654H40.9615V56.7104Z" fill="white"/>
<path d="M44.1149 56.7104H40.96V59.8654H44.1149V56.7104Z" fill="white"/>
<path d="M47.2623 56.7109H44.1074V59.8658H47.2623V56.7109Z" fill="white"/>
<path d="M53.5655 56.7109H50.4106V59.8658H53.5655V56.7109Z" fill="white"/>
<path d="M63.0196 56.7104H59.8647V59.8654H63.0196V56.7104Z" fill="white"/>
<path d="M66.1632 56.7104H63.0083V59.8654H66.1632V56.7104Z" fill="white"/>
<path d="M72.4698 56.7104H69.3149V59.8654H72.4698V56.7104Z" fill="white"/>
<path d="M75.6232 56.7104H72.4683V59.8654H75.6232V56.7104Z" fill="white"/>
<path d="M78.7687 56.7104H75.6138V59.8654H78.7687V56.7104Z" fill="white"/>
<path d="M88.2291 56.7104H85.0742V59.8654H88.2291V56.7104Z" fill="white"/>
<path d="M94.5236 56.7109H91.3687V59.8658H94.5236V56.7109Z" fill="white"/>
<path d="M100.829 56.7104H97.6738V59.8654H100.829V56.7104Z" fill="white"/>
<path d="M9.45764 59.8652H6.30273V63.0201H9.45764V59.8652Z" fill="white"/>
<path d="M15.7497 59.8652H12.6035V63.0201H15.7497V59.8652Z" fill="white"/>
<path d="M44.1149 59.8652H40.96V63.0201H44.1149V59.8652Z" fill="white"/>
<path d="M47.2623 59.8652H44.1074V63.0201H47.2623V59.8652Z" fill="white"/>
<path d="M53.5655 59.8652H50.4106V63.0201H53.5655V59.8652Z" fill="white"/>
<path d="M69.3204 59.8652H66.1655V63.0201H69.3204V59.8652Z" fill="white"/>
<path d="M81.9239 59.8652H78.769V63.0201H81.9239V59.8652Z" fill="white"/>
<path d="M91.3702 59.8652H88.2153V63.0201H91.3702V59.8652Z" fill="white"/>
<path d="M100.829 59.8652H97.6738V63.0201H100.829V59.8652Z" fill="white"/>
<path d="M3.1549 63.0117H0V66.1666H3.1549V63.0117Z" fill="white"/>
<path d="M9.45764 63.0117H6.30273V66.1666H9.45764V63.0117Z" fill="white"/>
<path d="M22.0553 63.0117H18.9004V66.1666H22.0553V63.0117Z" fill="white"/>
<path d="M25.2125 63.0117H22.0576V66.1666H25.2125V63.0117Z" fill="white"/>
<path d="M31.5153 63.0117H28.3604V66.1666H31.5153V63.0117Z" fill="white"/>
<path d="M34.6608 63.0117H31.5059V66.1666H34.6608V63.0117Z" fill="white"/>
<path d="M37.816 63.0117H34.6611V66.1666H37.816V63.0117Z" fill="white"/>
<path d="M44.1149 63.0117H40.96V66.1666H44.1149V63.0117Z" fill="white"/>
<path d="M47.2623 63.0117H44.1074V66.1666H47.2623V63.0117Z" fill="white"/>
<path d="M50.4161 63.0122H47.2612V66.1671H50.4161V63.0122Z" fill="white"/>
<path d="M66.1632 63.0117H63.0083V66.1666H66.1632V63.0117Z" fill="white"/>
<path d="M69.3204 63.0117H66.1655V66.1666H69.3204V63.0117Z" fill="white"/>
<path d="M72.4698 63.0117H69.3149V66.1666H72.4698V63.0117Z" fill="white"/>
<path d="M78.7687 63.0117H75.6138V66.1666H78.7687V63.0117Z" fill="white"/>
<path d="M81.9239 63.0117H78.769V66.1666H81.9239V63.0117Z" fill="white"/>
<path d="M85.0714 63.0117H81.9165V66.1666H85.0714V63.0117Z" fill="white"/>
<path d="M88.2291 63.0117H85.0742V66.1666H88.2291V63.0117Z" fill="white"/>
<path d="M91.3702 63.0117H88.2153V66.1666H91.3702V63.0117Z" fill="white"/>
<path d="M94.5236 63.0117H91.3687V66.1666H94.5236V63.0117Z" fill="white"/>
<path d="M100.829 63.0117H97.6738V66.1666H100.829V63.0117Z" fill="white"/>
<path d="M103.972 63.0117H100.817V66.1666H103.972V63.0117Z" fill="white"/>
<path d="M3.1549 66.1665H0V69.3214H3.1549V66.1665Z" fill="white"/>
<path d="M9.45764 66.1665H6.30273V69.3214H9.45764V66.1665Z" fill="white"/>
<path d="M15.7497 66.167H12.6035V69.3219H15.7497V66.167Z" fill="white"/>
<path d="M25.2125 66.1665H22.0576V69.3214H25.2125V66.1665Z" fill="white"/>
<path d="M28.3619 66.1665H25.207V69.3214H28.3619V66.1665Z" fill="white"/>
<path d="M31.5153 66.1665H28.3604V69.3214H31.5153V66.1665Z" fill="white"/>
<path d="M37.816 66.1665H34.6611V69.3214H37.816V66.1665Z" fill="white"/>
<path d="M40.9615 66.1665H37.8066V69.3214H40.9615V66.1665Z" fill="white"/>
<path d="M44.1149 66.1665H40.96V69.3214H44.1149V66.1665Z" fill="white"/>
<path d="M85.0714 66.1665H81.9165V69.3214H85.0714V66.1665Z" fill="white"/>
<path d="M88.2291 66.1665H85.0742V69.3214H88.2291V66.1665Z" fill="white"/>
<path d="M94.5236 66.1665H91.3687V69.3214H94.5236V66.1665Z" fill="white"/>
<path d="M97.6735 66.1665H94.5186V69.3214H97.6735V66.1665Z" fill="white"/>
<path d="M100.829 66.1665H97.6738V69.3214H100.829V66.1665Z" fill="white"/>
<path d="M12.6129 69.3125H9.45801V72.4674H12.6129V69.3125Z" fill="white"/>
<path d="M15.7497 69.313H12.6035V72.4679H15.7497V69.313Z" fill="white"/>
<path d="M18.9117 69.313H15.7568V72.4679H18.9117V69.313Z" fill="white"/>
<path d="M22.0553 69.313H18.9004V72.4679H22.0553V69.313Z" fill="white"/>
<path d="M25.2125 69.313H22.0576V72.4679H25.2125V69.313Z" fill="white"/>
<path d="M37.816 69.313H34.6611V72.4679H37.816V69.313Z" fill="white"/>
<path d="M44.1149 69.313H40.96V72.4679H44.1149V69.313Z" fill="white"/>
<path d="M50.4161 69.313H47.2612V72.4679H50.4161V69.313Z" fill="white"/>
<path d="M59.8644 69.313H56.7095V72.4679H59.8644V69.313Z" fill="white"/>
<path d="M69.3204 69.313H66.1655V72.4679H69.3204V69.313Z" fill="white"/>
<path d="M88.2291 69.313H85.0742V72.4679H88.2291V69.313Z" fill="white"/>
<path d="M91.3702 69.3125H88.2153V72.4674H91.3702V69.3125Z" fill="white"/>
<path d="M100.829 69.313H97.6738V72.4679H100.829V69.313Z" fill="white"/>
<path d="M12.6129 72.4678H9.45801V75.6227H12.6129V72.4678Z" fill="white"/>
<path d="M15.7497 72.4678H12.6035V75.6227H15.7497V72.4678Z" fill="white"/>
<path d="M18.9117 72.4678H15.7568V75.6227H18.9117V72.4678Z" fill="white"/>
<path d="M28.3619 72.4678H25.207V75.6227H28.3619V72.4678Z" fill="white"/>
<path d="M31.5153 72.4678H28.3604V75.6227H31.5153V72.4678Z" fill="white"/>
<path d="M34.6608 72.4678H31.5059V75.6227H34.6608V72.4678Z" fill="white"/>
<path d="M37.816 72.4678H34.6611V75.6227H37.816V72.4678Z" fill="white"/>
<path d="M40.9615 72.4678H37.8066V75.6227H40.9615V72.4678Z" fill="white"/>
<path d="M50.4161 72.4678H47.2612V75.6227H50.4161V72.4678Z" fill="white"/>
<path d="M56.7208 72.4678H53.5659V75.6227H56.7208V72.4678Z" fill="white"/>
<path d="M66.1632 72.4678H63.0083V75.6227H66.1632V72.4678Z" fill="white"/>
<path d="M69.3204 72.4678H66.1655V75.6227H69.3204V72.4678Z" fill="white"/>
<path d="M72.4698 72.4678H69.3149V75.6227H72.4698V72.4678Z" fill="white"/>
<path d="M78.7687 72.4678H75.6138V75.6227H78.7687V72.4678Z" fill="white"/>
<path d="M91.3702 72.4678H88.2153V75.6227H91.3702V72.4678Z" fill="white"/>
<path d="M100.829 72.4678H97.6738V75.6227H100.829V72.4678Z" fill="white"/>
<path d="M103.972 72.4678H100.817V75.6227H103.972V72.4678Z" fill="white"/>
<path d="M3.1549 75.6143H0V78.7692H3.1549V75.6143Z" fill="white"/>
<path d="M6.30822 75.6143H3.15332V78.7692H6.30822V75.6143Z" fill="white"/>
<path d="M9.45764 75.6143H6.30273V78.7692H9.45764V75.6143Z" fill="white"/>
<path d="M22.0553 75.6143H18.9004V78.7692H22.0553V75.6143Z" fill="white"/>
<path d="M28.3619 75.6143H25.207V78.7692H28.3619V75.6143Z" fill="white"/>
<path d="M31.5153 75.6143H28.3604V78.7692H31.5153V75.6143Z" fill="white"/>
<path d="M34.6608 75.6143H31.5059V78.7692H34.6608V75.6143Z" fill="white"/>
<path d="M37.816 75.6143H34.6611V78.7692H37.816V75.6143Z" fill="white"/>
<path d="M47.2623 75.6143H44.1074V78.7692H47.2623V75.6143Z" fill="white"/>
<path d="M50.4161 75.6143H47.2612V78.7692H50.4161V75.6143Z" fill="white"/>
<path d="M53.5655 75.6143H50.4106V78.7692H53.5655V75.6143Z" fill="white"/>
<path d="M56.7208 75.6143H53.5659V78.7692H56.7208V75.6143Z" fill="white"/>
<path d="M69.3204 75.6143H66.1655V78.7692H69.3204V75.6143Z" fill="white"/>
<path d="M72.4698 75.6143H69.3149V78.7692H72.4698V75.6143Z" fill="white"/>
<path d="M75.6232 75.6143H72.4683V78.7692H75.6232V75.6143Z" fill="white"/>
<path d="M78.7687 75.6143H75.6138V78.7692H78.7687V75.6143Z" fill="white"/>
<path d="M81.9239 75.6143H78.769V78.7692H81.9239V75.6143Z" fill="white"/>
<path d="M85.0714 75.6143H81.9165V78.7692H85.0714V75.6143Z" fill="white"/>
<path d="M88.2291 75.6143H85.0742V78.7692H88.2291V75.6143Z" fill="white"/>
<path d="M91.3702 75.6143H88.2153V78.7692H91.3702V75.6143Z" fill="white"/>
<path d="M28.3619 78.769H25.207V81.9239H28.3619V78.769Z" fill="white"/>
<path d="M37.816 78.769H34.6611V81.9239H37.816V78.769Z" fill="white"/>
<path d="M56.7208 78.769H53.5659V81.9239H56.7208V78.769Z" fill="white"/>
<path d="M59.8644 78.769H56.7095V81.9239H59.8644V78.769Z" fill="white"/>
<path d="M66.1632 78.769H63.0083V81.9239H66.1632V78.769Z" fill="white"/>
<path d="M78.7687 78.769H75.6138V81.9239H78.7687V78.769Z" fill="white"/>
<path d="M91.3702 78.769H88.2153V81.9239H91.3702V78.769Z" fill="white"/>
<path d="M94.5236 78.769H91.3687V81.9239H94.5236V78.769Z" fill="white"/>
<path d="M100.829 78.769H97.6738V81.9239H100.829V78.769Z" fill="white"/>
<path d="M28.3619 81.915H25.207V85.0699H28.3619V81.915Z" fill="white"/>
<path d="M31.5153 81.915H28.3604V85.0699H31.5153V81.915Z" fill="white"/>
<path d="M37.816 81.915H34.6611V85.0699H37.816V81.915Z" fill="white"/>
<path d="M44.1149 81.915H40.96V85.0699H44.1149V81.915Z" fill="white"/>
<path d="M47.2623 81.915H44.1074V85.0699H47.2623V81.915Z" fill="white"/>
<path d="M56.7208 81.915H53.5659V85.0699H56.7208V81.915Z" fill="white"/>
<path d="M63.0196 81.915H59.8647V85.0699H63.0196V81.915Z" fill="white"/>
<path d="M69.3204 81.915H66.1655V85.0699H69.3204V81.915Z" fill="white"/>
<path d="M72.4698 81.915H69.3149V85.0699H72.4698V81.915Z" fill="white"/>
<path d="M78.7687 81.915H75.6138V85.0699H78.7687V81.915Z" fill="white"/>
<path d="M85.0714 81.915H81.9165V85.0699H85.0714V81.915Z" fill="white"/>
<path d="M91.3702 81.915H88.2153V85.0699H91.3702V81.915Z" fill="white"/>
<path d="M94.5236 81.915H91.3687V85.0699H94.5236V81.915Z" fill="white"/>
<path d="M97.6735 81.915H94.5186V85.0699H97.6735V81.915Z" fill="white"/>
<path d="M100.829 81.915H97.6738V85.0699H100.829V81.915Z" fill="white"/>
<path d="M28.3619 85.0703H25.207V88.2252H28.3619V85.0703Z" fill="white"/>
<path d="M31.5153 85.0703H28.3604V88.2252H31.5153V85.0703Z" fill="white"/>
<path d="M50.4161 85.0703H47.2612V88.2252H50.4161V85.0703Z" fill="white"/>
<path d="M53.5655 85.0698H50.4106V88.2247H53.5655V85.0698Z" fill="white"/>
<path d="M69.3204 85.0703H66.1655V88.2252H69.3204V85.0703Z" fill="white"/>
<path d="M78.7687 85.0703H75.6138V88.2252H78.7687V85.0703Z" fill="white"/>
<path d="M91.3702 85.0698H88.2153V88.2247H91.3702V85.0698Z" fill="white"/>
<path d="M100.829 85.0703H97.6738V88.2252H100.829V85.0703Z" fill="white"/>
<path d="M103.972 85.0703H100.817V88.2252H103.972V85.0703Z" fill="white"/>
<path d="M28.3619 88.2163H25.207V91.3712H28.3619V88.2163Z" fill="white"/>
<path d="M31.5153 88.2163H28.3604V91.3712H31.5153V88.2163Z" fill="white"/>
<path d="M37.816 88.2163H34.6611V91.3712H37.816V88.2163Z" fill="white"/>
<path d="M47.2623 88.2168H44.1074V91.3717H47.2623V88.2168Z" fill="white"/>
<path d="M53.5655 88.2168H50.4106V91.3717H53.5655V88.2168Z" fill="white"/>
<path d="M63.0196 88.2163H59.8647V91.3712H63.0196V88.2163Z" fill="white"/>
<path d="M66.1632 88.2163H63.0083V91.3712H66.1632V88.2163Z" fill="white"/>
<path d="M78.7687 88.2163H75.6138V91.3712H78.7687V88.2163Z" fill="white"/>
<path d="M81.9239 88.2163H78.769V91.3712H81.9239V88.2163Z" fill="white"/>
<path d="M85.0714 88.2163H81.9165V91.3712H85.0714V88.2163Z" fill="white"/>
<path d="M88.2291 88.2163H85.0742V91.3712H88.2291V88.2163Z" fill="white"/>
<path d="M91.3702 88.2168H88.2153V91.3717H91.3702V88.2168Z" fill="white"/>
<path d="M94.5236 88.2168H91.3687V91.3717H94.5236V88.2168Z" fill="white"/>
<path d="M37.816 91.3711H34.6611V94.526H37.816V91.3711Z" fill="white"/>
<path d="M40.9615 91.3711H37.8066V94.526H40.9615V91.3711Z" fill="white"/>
<path d="M47.2623 91.3711H44.1074V94.526H47.2623V91.3711Z" fill="white"/>
<path d="M50.4161 91.3711H47.2612V94.526H50.4161V91.3711Z" fill="white"/>
<path d="M53.5655 91.3711H50.4106V94.526H53.5655V91.3711Z" fill="white"/>
<path d="M59.8644 91.3711H56.7095V94.526H59.8644V91.3711Z" fill="white"/>
<path d="M69.3204 91.3711H66.1655V94.526H69.3204V91.3711Z" fill="white"/>
<path d="M72.4698 91.3711H69.3149V94.526H72.4698V91.3711Z" fill="white"/>
<path d="M75.6232 91.3711H72.4683V94.526H75.6232V91.3711Z" fill="white"/>
<path d="M85.0714 91.3711H81.9165V94.526H85.0714V91.3711Z" fill="white"/>
<path d="M88.2291 91.3711H85.0742V94.526H88.2291V91.3711Z" fill="white"/>
<path d="M91.3702 91.3711H88.2153V94.526H91.3702V91.3711Z" fill="white"/>
<path d="M97.6735 91.3711H94.5186V94.526H97.6735V91.3711Z" fill="white"/>
<path d="M103.972 91.3711H100.817V94.526H103.972V91.3711Z" fill="white"/>
<path d="M31.5153 94.5176H28.3604V97.6725H31.5153V94.5176Z" fill="white"/>
<path d="M53.5655 94.5176H50.4106V97.6725H53.5655V94.5176Z" fill="white"/>
<path d="M56.7208 94.5176H53.5659V97.6725H56.7208V94.5176Z" fill="white"/>
<path d="M59.8644 94.5176H56.7095V97.6725H59.8644V94.5176Z" fill="white"/>
<path d="M63.0196 94.5176H59.8647V97.6725H63.0196V94.5176Z" fill="white"/>
<path d="M66.1632 94.5176H63.0083V97.6725H66.1632V94.5176Z" fill="white"/>
<path d="M72.4698 94.5176H69.3149V97.6725H72.4698V94.5176Z" fill="white"/>
<path d="M78.7687 94.5176H75.6138V97.6725H78.7687V94.5176Z" fill="white"/>
<path d="M81.9239 94.5176H78.769V97.6725H81.9239V94.5176Z" fill="white"/>
<path d="M85.0714 94.5176H81.9165V97.6725H85.0714V94.5176Z" fill="white"/>
<path d="M91.3702 94.5176H88.2153V97.6725H91.3702V94.5176Z" fill="white"/>
<path d="M94.5236 94.5176H91.3687V97.6725H94.5236V94.5176Z" fill="white"/>
<path d="M44.1149 97.6729H40.96V100.828H44.1149V97.6729Z" fill="white"/>
<path d="M47.2623 97.6729H44.1074V100.828H47.2623V97.6729Z" fill="white"/>
<path d="M56.7208 97.6729H53.5659V100.828H56.7208V97.6729Z" fill="white"/>
<path d="M63.0196 97.6729H59.8647V100.828H63.0196V97.6729Z" fill="white"/>
<path d="M69.3204 97.6729H66.1655V100.828H69.3204V97.6729Z" fill="white"/>
<path d="M75.6232 97.6729H72.4683V100.828H75.6232V97.6729Z" fill="white"/>
<path d="M78.7687 97.6729H75.6138V100.828H78.7687V97.6729Z" fill="white"/>
<path d="M88.2291 97.6729H85.0742V100.828H88.2291V97.6729Z" fill="white"/>
<path d="M91.3702 97.6729H88.2153V100.828H91.3702V97.6729Z" fill="white"/>
<path d="M94.5236 97.6729H91.3687V100.828H94.5236V97.6729Z" fill="white"/>
<path d="M34.6608 100.818H31.5059V103.973H34.6608V100.818Z" fill="white"/>
<path d="M40.9615 100.818H37.8066V103.973H40.9615V100.818Z" fill="white"/>
<path d="M59.8644 100.818H56.7095V103.973H59.8644V100.818Z" fill="white"/>
<path d="M63.0196 100.818H59.8647V103.973H63.0196V100.818Z" fill="white"/>
<path d="M66.1632 100.818H63.0083V103.973H66.1632V100.818Z" fill="white"/>
<path d="M69.3204 100.818H66.1655V103.973H69.3204V100.818Z" fill="white"/>
<path d="M72.4698 100.818H69.3149V103.973H72.4698V100.818Z" fill="white"/>
<path d="M75.6232 100.818H72.4683V103.973H75.6232V100.818Z" fill="white"/>
<path d="M78.7687 100.818H75.6138V103.973H78.7687V100.818Z" fill="white"/>
<path d="M81.9239 100.818H78.769V103.973H81.9239V100.818Z" fill="white"/>
<path d="M88.2291 100.818H85.0742V103.973H88.2291V100.818Z" fill="white"/>
<path d="M97.6735 100.818H94.5186V103.973H97.6735V100.818Z" fill="white"/>
<path d="M103.972 100.818H100.817V103.973H103.972V100.818Z" fill="white"/>
<path d="M18.7722 0H3.31313H0.000488281V3.31265V18.7717V22.0843H3.31313H18.7722H22.0848V18.7717V3.31265V0H18.7722ZM18.7722 18.7717H3.31313V3.31265H18.7722V18.7717Z" fill="white"/>
<path d="M100.688 0H85.2292H81.9165V3.31265V18.7717V22.0843H85.2292H100.688H104.001V18.7717V3.31265V0H100.688ZM100.688 18.7717H85.2292V3.31265H100.688V18.7717Z" fill="white"/>
<path d="M18.7717 81.915H3.31265H0V85.2277V100.687V103.999H3.31265H18.7717H22.0843V100.687V85.2277V81.915H18.7717ZM18.7717 100.687H3.31265V85.2277H18.7717V100.687Z" fill="white"/>
<path d="M15.7674 6.30127H6.30273V15.766H15.7674V6.30127Z" fill="white"/>
<path d="M97.68 6.30127H88.2153V15.766H97.68V6.30127Z" fill="white"/>
<path d="M15.7674 88.2168H6.30273V97.6815H15.7674V88.2168Z" fill="white"/>
</svg>
