<svg width="16px" height="16px" viewBox="0 0 16 16" xmlns="http://www.w3.org/2000/svg" version="1.1" fill="none" stroke="currentColor" stroke-linecap="round" stroke-linejoin="round" stroke-width="1.5">
<circle cy="8" cx="8" r="6.25"/>
<path d="m8 5.25v0m0 6v-3.5"/>
</svg>